<?xml version="1.0" encoding="utf-8"?>
<!-- Generator: Adobe Illustrator 22.1.0, SVG Export Plug-In . SVG Version: 6.00 Build 0)  -->
<svg version="1.1" id="Layer_1" xmlns="http://www.w3.org/2000/svg" xmlns:xlink="http://www.w3.org/1999/xlink" x="0px" y="0px"
	 viewBox="0 0 119 35" style="enable-background:new 0 0 119 35;" xml:space="preserve">
<style type="text/css">
	.st0{fill:#589F97;}
	.st1{opacity:0.45;fill:#B9B9B9;filter:url(#Adobe_OpacityMaskFilter);enable-background:new    ;}
	.st2{mask:url(#mask0_1_);}
	.st3{opacity:0.5;fill:url(#SVGID_1_);enable-background:new    ;}
	.st4{opacity:0.5;fill:url(#SVGID_2_);enable-background:new    ;}
	.st5{opacity:0.45;fill:#B9B9B9;filter:url(#Adobe_OpacityMaskFilter_1_);enable-background:new    ;}
	.st6{mask:url(#mask1_1_);}
	.st7{opacity:0.5;fill:url(#SVGID_3_);enable-background:new    ;}
	.st8{opacity:0.45;fill:#B9B9B9;filter:url(#Adobe_OpacityMaskFilter_2_);enable-background:new    ;}
	.st9{mask:url(#mask2_1_);}
	.st10{opacity:0.5;fill:url(#SVGID_4_);enable-background:new    ;}
	.st11{opacity:0.45;fill:#B9B9B9;filter:url(#Adobe_OpacityMaskFilter_3_);enable-background:new    ;}
	.st12{mask:url(#mask3_1_);}
	.st13{opacity:0.7;fill:url(#SVGID_5_);enable-background:new    ;}
	.st14{fill:#444444;}
	.st15{fill:#333333;}
	.st16{fill:#308077;}
	.st17{fill:#146259;}
</style>
<g>
	<ellipse class="st0" cx="17.8" cy="17.5" rx="17.8" ry="17.5"/>
	<rect x="83.5" class="st15" width="35.5" height="35"/>
	<rect x="41.7" class="st0" width="35.5" height="10.2"/>
	<rect x="41.7" y="12.6" class="st16" width="35.5" height="9.7"/>
	<rect x="41.7" y="25" class="st17" width="35.5" height="10"/>
</g>
</svg>
