<?xml version="1.0" encoding="utf-8"?>
<!-- Generator: Adobe Illustrator 22.1.0, SVG Export Plug-In . SVG Version: 6.00 Build 0)  -->
<svg version="1.1" id="Layer_1" xmlns="http://www.w3.org/2000/svg" xmlns:xlink="http://www.w3.org/1999/xlink" x="0px" y="0px"
	 viewBox="0 0 184 40" style="enable-background:new 0 0 184 40;" xml:space="preserve">
<style type="text/css">
	.st0{fill:#589F97;}
	.st1{opacity:0.45;fill:#B9B9B9;filter:url(#Adobe_OpacityMaskFilter);enable-background:new    ;}
	.st2{mask:url(#mask0_1_);}
	.st3{opacity:0.5;fill:url(#SVGID_1_);enable-background:new    ;}
	.st4{opacity:0.5;fill:url(#SVGID_2_);enable-background:new    ;}
	.st5{opacity:0.45;fill:#B9B9B9;filter:url(#Adobe_OpacityMaskFilter_1_);enable-background:new    ;}
	.st6{mask:url(#mask1_1_);}
	.st7{opacity:0.5;fill:url(#SVGID_3_);enable-background:new    ;}
	.st8{opacity:0.45;fill:#B9B9B9;filter:url(#Adobe_OpacityMaskFilter_2_);enable-background:new    ;}
	.st9{mask:url(#mask2_1_);}
	.st10{opacity:0.5;fill:url(#SVGID_4_);enable-background:new    ;}
	.st11{opacity:0.45;fill:#B9B9B9;filter:url(#Adobe_OpacityMaskFilter_3_);enable-background:new    ;}
	.st12{mask:url(#mask3_1_);}
	.st13{opacity:0.7;fill:url(#SVGID_5_);enable-background:new    ;}
	.st14{fill:#444444;}
	.st15{fill:#333333;}
	.st16{fill:#308077;}
	.st17{fill:#146259;}
</style>
<g>
	<path class="st0" d="M1.4,6.9h6v32.6h-6V6.9z"/>
	<path class="st0" d="M20.6,0.9l6,6H1.4l6-6L20.6,0.9z"/>
	<path class="st0" d="M6.6,21.7l3-6h17l-6,6H6.6z"/>
	<defs>
		<filter id="Adobe_OpacityMaskFilter" filterUnits="userSpaceOnUse" x="0" y="3.1" width="16.4" height="22.7">
			<feColorMatrix  type="matrix" values="1 0 0 0 0  0 1 0 0 0  0 0 1 0 0  0 0 0 1 0"/>
		</filter>
	</defs>
	<mask maskUnits="userSpaceOnUse" x="0" y="3.1" width="16.4" height="22.7" id="mask0_1_">
		<path class="st1" d="M1.4,6.9h6v23.9h-6V6.9z"/>
	</mask>
	<g class="st2">
		
			<radialGradient id="SVGID_1_" cx="7.6491" cy="45.204" r="0.1073" gradientTransform="matrix(2.173595e-15 35.4975 62.0791 -3.801249e-15 -2799.5625 -264.5893)" gradientUnits="userSpaceOnUse">
			<stop  offset="0" style="stop-color:#000000"/>
			<stop  offset="0.9171" style="stop-color:#000000;stop-opacity:0"/>
		</radialGradient>
		<path class="st3" d="M13.3,6.9c0,2.1-3,3.8-6.7,3.8S0,9,0,6.9c0-2.1,3-3.8,6.7-3.8S13.3,4.8,13.3,6.9z"/>
		
			<radialGradient id="SVGID_2_" cx="3.9513" cy="44.9996" r="0.1073" gradientTransform="matrix(2.348475e-15 38.3535 57.9055 -3.545689e-15 -2595.5312 -129.8425)" gradientUnits="userSpaceOnUse">
			<stop  offset="0" style="stop-color:#000000"/>
			<stop  offset="0.9171" style="stop-color:#000000;stop-opacity:0"/>
		</radialGradient>
		<path class="st4" d="M16.4,21.7c0,2.3-2.8,4.1-6.2,4.1C6.8,25.8,4,24,4,21.7s2.8-4.1,6.2-4.1C13.6,17.6,16.4,19.4,16.4,21.7z"/>
	</g>
	<defs>
		<filter id="Adobe_OpacityMaskFilter_1_" filterUnits="userSpaceOnUse" x="17.1" y="0" width="7.7" height="11.8">
			<feColorMatrix  type="matrix" values="1 0 0 0 0  0 1 0 0 0  0 0 1 0 0  0 0 0 1 0"/>
		</filter>
	</defs>
	<mask maskUnits="userSpaceOnUse" x="17.1" y="0" width="7.7" height="11.8" id="mask1_1_">
		<path class="st5" d="M20.6,0.9v6H7.5v-6L20.6,0.9z"/>
	</mask>
	<g class="st6">
		
			<radialGradient id="SVGID_3_" cx="-2.9564" cy="45.4559" r="0.1073" gradientTransform="matrix(-35.9716 0 0 54.9152 -85.4154 -2490.325)" gradientUnits="userSpaceOnUse">
			<stop  offset="0" style="stop-color:#000000"/>
			<stop  offset="0.9171" style="stop-color:#000000;stop-opacity:0"/>
		</radialGradient>
		<path class="st7" d="M20.9,11.8c-2.1,0-3.9-2.6-3.9-5.9c0-3.3,1.7-5.9,3.9-5.9c2.1,0,3.9,2.6,3.9,5.9
			C24.8,9.1,23.1,11.8,20.9,11.8z"/>
	</g>
	<path class="st0" d="M20.6,0.9l6,6v8.8h-6V0.9z"/>
	<defs>
		<filter id="Adobe_OpacityMaskFilter_2_" filterUnits="userSpaceOnUse" x="15.8" y="12.4" width="11.9" height="7.7">
			<feColorMatrix  type="matrix" values="1 0 0 0 0  0 1 0 0 0  0 0 1 0 0  0 0 0 1 0"/>
		</filter>
	</defs>
	<mask maskUnits="userSpaceOnUse" x="15.8" y="12.4" width="11.9" height="7.7" id="mask2_1_">
		<path class="st8" d="M26.7,15.7h-6V7.5h6V15.7z"/>
	</mask>
	<g class="st9">
		
			<radialGradient id="SVGID_4_" cx="-3.4301" cy="38.5386" r="0.1073" gradientTransform="matrix(2.188352e-15 -35.7385 -55.2734 -3.384520e-15 2151.8413 -106.3075)" gradientUnits="userSpaceOnUse">
			<stop  offset="0" style="stop-color:#000000"/>
			<stop  offset="0.9171" style="stop-color:#000000;stop-opacity:0"/>
		</radialGradient>
		<path class="st10" d="M15.8,16.3c0-2.1,2.7-3.8,5.9-3.8c3.3,0,5.9,1.7,5.9,3.8c0,2.1-2.7,3.8-5.9,3.8
			C18.4,20.1,15.8,18.4,15.8,16.3z"/>
	</g>
	<defs>
		<filter id="Adobe_OpacityMaskFilter_3_" filterUnits="userSpaceOnUse" x="3.3" y="11.9" width="15.1" height="17.3">
			<feColorMatrix  type="matrix" values="1 0 0 0 0  0 1 0 0 0  0 0 1 0 0  0 0 0 1 0"/>
		</filter>
	</defs>
	<mask maskUnits="userSpaceOnUse" x="3.3" y="11.9" width="15.1" height="17.3" id="mask3_1_">
		<path class="st11" d="M9.7,15.7v6H18v-6H9.7z"/>
	</mask>
	<g class="st12">
		
			<radialGradient id="SVGID_5_" cx="3.6674" cy="38.6244" r="0.1073" gradientTransform="matrix(27.6473 -22.8636 -64.1372 -77.5566 2386.719 3099.9177)" gradientUnits="userSpaceOnUse">
			<stop  offset="0" style="stop-color:#000000"/>
			<stop  offset="0.9171" style="stop-color:#000000;stop-opacity:0"/>
		</radialGradient>
		<path class="st13" d="M17.8,28.8c1.6-1.4-0.1-6.2-4-10.7c-3.8-4.6-8.3-7.2-9.9-5.8c-1.6,1.4,0.1,6.2,4,10.7S16.2,30.1,17.8,28.8z"
			/>
	</g>
	<path class="st0" d="M6.6,21.7l3-6l17,19.9l-4.6,3.9L6.6,21.7z"/>
	<path class="st14" d="M44.8,18l-2-3.7c0.9-0.3,2-1.3,2-3c0-1.9-1.2-3.3-3.5-3.3h-5v10h2.6v-3.4h1.3l1.7,3.4H44.8z M40.9,12.4h-2
		v-2.1h2c0.7,0,1.2,0.4,1.2,1.1C42.1,12,41.6,12.4,40.9,12.4z"/>
	<path class="st14" d="M48.7,18V8h-2.6v10H48.7z"/>
	<path class="st14" d="M54.2,18.2c2.7,0,4.1-1.3,4.1-3.4c0-3.7-5.6-2.8-5.6-4.1c0-0.4,0.3-0.7,1.1-0.7c1,0,2.1,0.3,2.9,1l1.4-1.8
		c-1.1-0.9-2.4-1.4-4-1.4c-2.5,0-4,1.5-4,3.2c0,3.9,5.6,2.8,5.6,4.1c0,0.5-0.5,0.8-1.4,0.8c-1.4,0-2.5-0.6-3.2-1.3l-1.4,1.9
		C50.8,17.5,52.2,18.2,54.2,18.2z"/>
	<path class="st14" d="M64.1,18v-7.8h2.8V8h-8.1v2.3h2.8V18H64.1z"/>
	<path class="st14" d="M75.3,18v-2.3h-4.7V14h4.6v-2.3h-4.6v-1.6h4.7V8H68v10H75.3z"/>
	<path class="st14" d="M85.8,18l-4.1-5.3L85.6,8h-3.2l-3,4.1V8h-2.6v10h2.6v-2.9l0.7-0.8l2.6,3.8H85.8z"/>
	<path class="st14" d="M92.9,18v-4h4.6v-2.3h-4.6v-1.6h4.7V8h-7.3v10H92.9z"/>
	<path class="st14" d="M107.9,18l-3.7-10H101l-3.7,10h2.9l0.5-1.4h3.9L105,18H107.9z M103.8,14.3h-2.5l1.3-3.8L103.8,14.3z"/>
	<path class="st14" d="M112.3,18.2c2.7,0,4.1-1.3,4.1-3.4c0-3.7-5.6-2.8-5.6-4.1c0-0.4,0.3-0.7,1.1-0.7c1,0,2.1,0.3,2.9,1l1.4-1.8
		c-1.1-0.9-2.4-1.4-4-1.4c-2.5,0-4,1.5-4,3.2c0,3.9,5.6,2.8,5.6,4.1c0,0.5-0.5,0.8-1.4,0.8c-1.4,0-2.5-0.6-3.2-1.3l-1.4,1.9
		C108.9,17.5,110.3,18.2,112.3,18.2z"/>
	<path class="st14" d="M120.2,18V8h-2.6v10H120.2z"/>
	<path class="st14" d="M128.5,18v-2.3h-4V8H122v10H128.5z"/>
	<path class="st14" d="M138.8,18l-4.1-5.3l3.9-4.7h-3.2l-3,4.1V8h-2.6v10h2.6v-2.9l0.7-0.8l2.6,3.8H138.8z"/>
	<path class="st14" d="M143.7,18.2c3,0,5.3-2.1,5.3-5.2c0-3.1-2.3-5.2-5.3-5.2c-3,0-5.3,2.1-5.3,5.2C138.4,16,140.7,18.2,143.7,18.2
		z M143.7,15.9c-1.7,0-2.7-1.3-2.7-2.9c0-1.6,1.1-2.9,2.7-2.9c1.6,0,2.7,1.3,2.7,2.9C146.4,14.6,145.4,15.9,143.7,15.9z"/>
	<path class="st14" d="M161.6,18V8H158l-2.1,5.4L153.9,8h-3.6v10h2.6v-6.5l2.5,6.5h1.1l2.5-6.5V18H161.6z"/>
	<path class="st14" d="M171.9,18.2c3.2,0,4.7-1.8,4.7-4.3V8H174v5.9c0,1.2-0.7,2-2.1,2c-1.4,0-2.1-0.9-2.1-2V8h-2.6v6
		C167.2,16.4,168.7,18.2,171.9,18.2z"/>
	<path class="st14" d="M180.9,18V8h-2.6v10H180.9z"/>
	<path class="st14" d="M39,33.2l0.6-1.8h1.1l0.3-0.9h-1.1l0.6-1.8h1.1l0.3-0.9h-1l0.6-1.8h-1l-0.6,1.8h-1l0.6-1.8h-1l-0.6,1.8h-1.1
		l-0.3,0.9h1l-0.6,1.8h-1l-0.3,0.9h1L36,33.2h1l0.6-1.8h1L38,33.2H39z M38.9,30.6h-1l0.6-1.8h1L38.9,30.6z"/>
	<path class="st14" d="M46.1,33.4c1.6,0,2.5-0.9,3-1.8L47.8,31c-0.3,0.6-0.9,1-1.7,1c-1.3,0-2.2-1-2.2-2.4s0.9-2.4,2.2-2.4
		c0.7,0,1.4,0.5,1.7,1l1.3-0.6c-0.5-0.9-1.4-1.7-3-1.7c-2.1,0-3.8,1.5-3.8,3.7S44,33.4,46.1,33.4z"/>
	<path class="st14" d="M53.4,33.4c2.1,0,3.7-1.5,3.7-3.7S55.5,26,53.4,26c-2.1,0-3.7,1.5-3.7,3.7S51.2,33.4,53.4,33.4z M53.4,32
		c-1.3,0-2.1-1-2.1-2.4c0-1.3,0.8-2.4,2.1-2.4s2.2,1,2.2,2.4C55.5,31,54.7,32,53.4,32z"/>
	<path class="st14" d="M64.5,33.2v-7.2H63v4.5l-3.3-4.5h-1.6v7.2h1.5v-4.7l3.4,4.7H64.5z"/>
	<path class="st14" d="M69.2,33.4c0.6,0,1.2-0.1,1.7-0.4l0.6,0.7l1.1-0.9L72,32.2c0.6-0.6,0.9-1.5,0.9-2.5c0-2.2-1.6-3.7-3.7-3.7
		c-2.1,0-3.7,1.5-3.7,3.7S67.1,33.4,69.2,33.4z M69.2,32c-1.3,0-2.1-1-2.1-2.4c0-1.3,0.8-2.4,2.1-2.4s2.2,1,2.2,2.4
		c0,0.5-0.1,1-0.4,1.4l-0.8-0.9l-1,0.9l0.8,0.9C69.7,32,69.5,32,69.2,32z"/>
	<path class="st14" d="M77.2,33.4c2.2,0,3.2-1.2,3.2-3v-4.3h-1.5v4.3c0,1-0.6,1.7-1.7,1.7c-1.1,0-1.7-0.7-1.7-1.7v-4.3H74v4.3
		C74,32.1,75,33.4,77.2,33.4z"/>
	<path class="st14" d="M86.8,33.2v-1.3h-3.5v-1.6h3.4v-1.3h-3.4v-1.5h3.5v-1.3h-5v7.2H86.8z"/>
	<path class="st14" d="M93.7,33.2l-1.6-2.7c0.8-0.2,1.6-0.9,1.6-2.1c0-1.3-0.9-2.3-2.4-2.3H88v7.2h1.5v-2.5h1.1l1.4,2.5H93.7z
		 M91.1,29.4h-1.6v-1.9h1.6c0.6,0,1.1,0.4,1.1,1S91.7,29.4,91.1,29.4z"/>
	<path class="st14" d="M97.6,33.2v-6.4h2.3v-0.8h-5.4v0.8h2.2v6.4H97.6z"/>
	<path class="st14" d="M105.6,33.2v-0.8h-3.8V30h3.7v-0.8h-3.7v-2.3h3.8v-0.8H101v7.2H105.6z"/>
	<path class="st14" d="M110.4,33.4c1.3,0,2.1-0.6,2.7-1.4l-0.8-0.4c-0.4,0.6-1.1,1-1.9,1c-1.6,0-2.7-1.2-2.7-2.9
		c0-1.7,1.2-2.9,2.7-2.9c0.8,0,1.5,0.4,1.9,1l0.7-0.4c-0.6-0.8-1.4-1.4-2.7-1.4c-2,0-3.6,1.5-3.6,3.7S108.4,33.4,110.4,33.4z"/>
	<path class="st14" d="M120.1,33.2v-7.2h-0.9v3.1h-4.1v-3.1h-0.9v7.2h0.9V30h4.1v3.3H120.1z"/>
</g>
</svg>
